\relax 
\providecommand\hyper@newdestlabel[2]{}
\@writefile{toc}{\defcounter {refsection}{0}\relax }\@writefile{toc}{\contentsline {chapter}{\numberline {3}Continuum Mechanics }{6}{chapter.3}}
\@writefile{lof}{\defcounter {refsection}{0}\relax }\@writefile{lof}{\addvspace {10\p@ }}
\@writefile{lot}{\defcounter {refsection}{0}\relax }\@writefile{lot}{\addvspace {10\p@ }}
\newlabel{sec:continuum}{{3}{6}{Continuum Mechanics}{chapter.3}{}}
\@writefile{toc}{\defcounter {refsection}{0}\relax }\@writefile{toc}{\contentsline {section}{\numberline {3.1}Kinematics}{7}{section.3.1}}
\@writefile{toc}{\defcounter {refsection}{0}\relax }\@writefile{toc}{\contentsline {subsection}{\numberline {3.1.1}Motion}{7}{subsection.3.1.1}}
\@writefile{lof}{\defcounter {refsection}{0}\relax }\@writefile{lof}{\contentsline {figure}{\numberline {3.1}{\ignorespaces Schematic diagram of a body deforming.\relax }}{7}{figure.caption.14}}
\newlabel{fig:kin}{{3.1}{7}{Schematic diagram of a body deforming.\relax }{figure.caption.14}{}}
\newlabel{eq:motion}{{3.1}{7}{Motion}{equation.3.1.1}{}}
\@writefile{toc}{\defcounter {refsection}{0}\relax }\@writefile{toc}{\contentsline {subsection}{\numberline {3.1.2}Deformation Gradient}{8}{subsection.3.1.2}}
\@writefile{lof}{\defcounter {refsection}{0}\relax }\@writefile{lof}{\contentsline {figure}{\numberline {3.2}{\ignorespaces Schematic diagram of a motion being decomposed into a rotating component and a stretching component. \leavevmode {\color  {red}Change v to V here}\relax }}{9}{figure.caption.15}}
\newlabel{fig: polar}{{3.2}{9}{Schematic diagram of a motion being decomposed into a rotating component and a stretching component. \textcolor {red}{Change v to V here}\relax }{figure.caption.15}{}}
\@writefile{toc}{\defcounter {refsection}{0}\relax }\@writefile{toc}{\contentsline {subsection}{\numberline {3.1.3}Pure Deformation Measures}{9}{subsection.3.1.3}}
\newlabel{eq:VR}{{3.10}{9}{Pure Deformation Measures}{equation.3.1.10}{}}
\newlabel{eq:F}{{3.11}{9}{Pure Deformation Measures}{equation.3.1.11}{}}
\newlabel{eq: BV}{{3.16}{10}{Pure Deformation Measures}{equation.3.1.16}{}}
\newlabel{eq: CU}{{3.18}{10}{Pure Deformation Measures}{equation.3.1.18}{}}
\newlabel{eq:bcr}{{3.21}{10}{Pure Deformation Measures}{equation.3.1.21}{}}
\newlabel{eq:GLStrain}{{3.22}{11}{Pure Deformation Measures}{equation.3.1.22}{}}
\@writefile{toc}{\defcounter {refsection}{0}\relax }\@writefile{toc}{\contentsline {subsection}{\numberline {3.1.4}Eigenvalue Decomposition}{11}{subsection.3.1.4}}
\newlabel{eq: bN}{{3.29}{11}{Eigenvalue Decomposition}{equation.3.1.29}{}}
\newlabel{eq:FN}{{3.33}{12}{Eigenvalue Decomposition}{equation.3.1.33}{}}
\@writefile{toc}{\defcounter {refsection}{0}\relax }\@writefile{toc}{\contentsline {subsection}{\numberline {3.1.5}Volume Change}{12}{subsection.3.1.5}}
\@writefile{toc}{\defcounter {refsection}{0}\relax }\@writefile{toc}{\contentsline {subsection}{\numberline {3.1.6}Rate of Deformation}{13}{subsection.3.1.6}}
\newlabel{eq:RateOfDeformation}{{3.40}{13}{Rate of Deformation}{equation.3.1.40}{}}
\@writefile{toc}{\defcounter {refsection}{0}\relax }\@writefile{toc}{\contentsline {section}{\numberline {3.2}Stress and Equilibrium}{13}{section.3.2}}
\@writefile{toc}{\defcounter {refsection}{0}\relax }\@writefile{toc}{\contentsline {subsection}{\numberline {3.2.1}Stress}{14}{subsection.3.2.1}}
\@writefile{toc}{\defcounter {refsection}{0}\relax }\@writefile{toc}{\contentsline {subsubsection}{The Cauchy Stress}{14}{section*.16}}
\@writefile{lof}{\defcounter {refsection}{0}\relax }\@writefile{lof}{\contentsline {figure}{\numberline {3.3}{\ignorespaces Schematic diagram of a body split into two, displaying the internal forces on the body.\relax }}{14}{figure.caption.17}}
\newlabel{fig:stress}{{3.3}{14}{Schematic diagram of a body split into two, displaying the internal forces on the body.\relax }{figure.caption.17}{}}
\@writefile{toc}{\defcounter {refsection}{0}\relax }\@writefile{toc}{\contentsline {subsubsection}{The First Piola-Kirchhoff Stress}{14}{section*.18}}
\newlabel{eq:refTrac}{{3.48}{14}{The First Piola-Kirchhoff Stress}{equation.3.2.48}{}}
\newlabel{eq:PSigInnit}{{3.51}{15}{The First Piola-Kirchhoff Stress}{equation.3.2.51}{}}
\newlabel{eq:SIG2P}{{3.54}{15}{The First Piola-Kirchhoff Stress}{equation.3.2.54}{}}
\@writefile{toc}{\defcounter {refsection}{0}\relax }\@writefile{toc}{\contentsline {subsubsection}{The Second Piola-Kirchhoff Stress}{15}{section*.19}}
\@writefile{toc}{\defcounter {refsection}{0}\relax }\@writefile{toc}{\contentsline {subsubsection}{The Kirchhoff Stress}{16}{section*.20}}
\newlabel{eq:StressRelations}{{3.61}{16}{The Kirchhoff Stress}{equation.3.2.61}{}}
\@writefile{toc}{\defcounter {refsection}{0}\relax }\@writefile{toc}{\contentsline {subsection}{\numberline {3.2.2}Equilibrium}{16}{subsection.3.2.2}}
\@writefile{toc}{\defcounter {refsection}{0}\relax }\@writefile{toc}{\contentsline {subsubsection}{Translational Equilibrium}{16}{section*.21}}
\@writefile{lof}{\defcounter {refsection}{0}\relax }\@writefile{lof}{\contentsline {figure}{\numberline {3.4}{\ignorespaces Diagram of a body experiencing surface tractions and body forces.\relax }}{16}{figure.caption.22}}
\newlabel{fig:equilibrium}{{3.4}{16}{Diagram of a body experiencing surface tractions and body forces.\relax }{figure.caption.22}{}}
\newlabel{eq:Equilibrium}{{3.65}{17}{Translational Equilibrium}{equation.3.2.65}{}}
\@writefile{toc}{\defcounter {refsection}{0}\relax }\@writefile{toc}{\contentsline {subsubsection}{Rotational Equilibrium}{17}{section*.23}}
\newlabel{eq:StressPreCross}{{3.67}{17}{Rotational Equilibrium}{equation.3.2.67}{}}
\newlabel{eq:StressCross}{{3.68}{17}{Rotational Equilibrium}{equation.3.2.68}{}}
\@writefile{toc}{\defcounter {refsection}{0}\relax }\@writefile{toc}{\contentsline {section}{\numberline {3.3}Strain Energy}{18}{section.3.3}}
\@writefile{toc}{\defcounter {refsection}{0}\relax }\@writefile{toc}{\contentsline {subsection}{\numberline {3.3.1}Work Conjugacy}{18}{subsection.3.3.1}}
\@writefile{lof}{\defcounter {refsection}{0}\relax }\@writefile{lof}{\contentsline {figure}{\numberline {3.5}{\ignorespaces Schematic figure of a small cube about to deform.\relax }}{18}{figure.caption.24}}
\newlabel{fig:strain energy}{{3.5}{18}{Schematic figure of a small cube about to deform.\relax }{figure.caption.24}{}}
\newlabel{eq: sum power}{{3.72}{18}{Work Conjugacy}{equation.3.3.72}{}}
\newlabel{eq:NIII}{{3.73}{19}{Work Conjugacy}{equation.3.3.73}{}}
\newlabel{eq: x dot}{{3.74}{19}{Work Conjugacy}{equation.3.3.74}{}}
\newlabel{eq: A i}{{3.75}{19}{Work Conjugacy}{equation.3.3.75}{}}
\newlabel{eq:Psi2P}{{3.82}{20}{Work Conjugacy}{equation.3.3.82}{}}
\newlabel{sec:SEF}{{3.3.2}{20}{Formulation of Strain Energy Functions}{subsection.3.3.2}{}}
\@writefile{toc}{\defcounter {refsection}{0}\relax }\@writefile{toc}{\contentsline {subsection}{\numberline {3.3.2}Formulation of Strain Energy Functions }{20}{subsection.3.3.2}}
\@writefile{toc}{\defcounter {refsection}{0}\relax }\@writefile{toc}{\contentsline {subsubsection}{Isotropy}{20}{section*.25}}
\newlabel{eq:SigPsi}{{3.86}{21}{Isotropy}{equation.3.3.86}{}}
\newlabel{eq:SigPrins}{{3.93}{21}{Isotropy}{equation.3.3.93}{}}
\@writefile{toc}{\defcounter {refsection}{0}\relax }\@writefile{toc}{\contentsline {subsubsection}{Transverse Isotropy}{22}{section*.26}}
\@writefile{toc}{\defcounter {refsection}{0}\relax }\@writefile{toc}{\contentsline {subsubsection}{A Note on Transversely Isotropic Materials}{22}{section*.27}}
\newlabel{eq:anisoStressBeginning}{{3.103}{23}{A Note on Transversely Isotropic Materials}{equation.3.3.103}{}}
\@writefile{toc}{\defcounter {refsection}{0}\relax }\@writefile{toc}{\contentsline {subsection}{\numberline {3.3.3}Near Incompressibility}{23}{subsection.3.3.3}}
\@writefile{toc}{\defcounter {refsection}{0}\relax }\@writefile{toc}{\contentsline {subsubsection}{Isotropic Isochoric Stress}{24}{section*.28}}
\newlabel{eq:SigIHat}{{3.117}{24}{Isotropic Isochoric Stress}{equation.3.3.117}{}}
\newlabel{eq:I1hat}{{3.118}{24}{Isotropic Isochoric Stress}{equation.3.3.118}{}}
\newlabel{eq:hatSig}{{3.119}{25}{Isotropic Isochoric Stress}{equation.3.3.119}{}}
\newlabel{eq:SigHatPrinc}{{3.121}{25}{Isotropic Isochoric Stress}{equation.3.3.121}{}}
\@writefile{toc}{\defcounter {refsection}{0}\relax }\@writefile{toc}{\contentsline {subsubsection}{Transverse Isotropic Isochoric Stress}{25}{section*.29}}
\newlabel{eq:SigAnisoMake}{{3.127}{25}{Transverse Isotropic Isochoric Stress}{equation.3.3.127}{}}
\@writefile{toc}{\defcounter {refsection}{0}\relax }\@writefile{toc}{\contentsline {subsubsection}{Volumetric Stress}{26}{section*.30}}
\newlabel{sec:MatModels}{{3.4}{27}{A Handful of Material Models}{section.3.4}{}}
\@writefile{toc}{\defcounter {refsection}{0}\relax }\@writefile{toc}{\contentsline {section}{\numberline {3.4}A Handful of Material Models }{27}{section.3.4}}
\@writefile{toc}{\defcounter {refsection}{0}\relax }\@writefile{toc}{\contentsline {subsection}{\numberline {3.4.1}The Isochoric Neo-Hookean Model}{27}{subsection.3.4.1}}
\@writefile{toc}{\defcounter {refsection}{0}\relax }\@writefile{toc}{\contentsline {subsection}{\numberline {3.4.2}The Isochoric Ogden Model}{27}{subsection.3.4.2}}
\newlabel{eq:princeEasy}{{3.138}{27}{The Isochoric Ogden Model}{equation.3.4.138}{}}
\@writefile{toc}{\defcounter {refsection}{0}\relax }\@writefile{toc}{\contentsline {subsection}{\numberline {3.4.3}The Isochoric Holzapfel-Gasser-Ogden Model}{28}{subsection.3.4.3}}
\@writefile{toc}{\defcounter {refsection}{0}\relax }\@writefile{toc}{\contentsline {subsection}{\numberline {3.4.4}A Common Volumetric Strain Energy Function}{28}{subsection.3.4.4}}
\newlabel{eq:volStress}{{3.149}{29}{A Common Volumetric Strain Energy Function}{equation.3.4.149}{}}
\@writefile{toc}{\defcounter {refsection}{0}\relax }\@writefile{toc}{\contentsline {subsection}{\numberline {3.4.5}Two Models for Near Incompressible Transversely Isotropic Materials}{29}{subsection.3.4.5}}
\newlabel{eq:HGOOriginal}{{3.150}{29}{Two Models for Near Incompressible Transversely Isotropic Materials}{equation.3.4.150}{}}
\newlabel{eq:HGOModified}{{3.151}{29}{Two Models for Near Incompressible Transversely Isotropic Materials}{equation.3.4.151}{}}
\@writefile{toc}{\defcounter {refsection}{0}\relax }\@writefile{toc}{\contentsline {subsection}{\numberline {3.4.6}Linear Elasticity}{29}{subsection.3.4.6}}
\@writefile{toc}{\defcounter {refsection}{0}\relax }\@writefile{toc}{\contentsline {section}{\numberline {3.5}Tangent Modulus Tensor}{31}{section.3.5}}
\newlabel{eq:TanTenStart}{{3.157}{31}{Tangent Modulus Tensor}{equation.3.5.157}{}}
\newlabel{eq:TanMat}{{3.158}{31}{Tangent Modulus Tensor}{equation.3.5.158}{}}
\newlabel{eq:TanMatMod}{{3.159}{31}{Tangent Modulus Tensor}{equation.3.5.159}{}}
\newlabel{eq:TanForward}{{3.164}{31}{Tangent Modulus Tensor}{equation.3.5.164}{}}
\newlabel{eq:TanL2J}{{3.170}{32}{Tangent Modulus Tensor}{equation.3.5.170}{}}
\newlabel{eq:ConvStart}{{3.171}{32}{Tangent Modulus Tensor}{equation.3.5.171}{}}
\@writefile{toc}{\defcounter {refsection}{0}\relax }\@writefile{toc}{\contentsline {subsection}{\numberline {3.5.1}Direct Calculation}{33}{subsection.3.5.1}}
\@writefile{toc}{\defcounter {refsection}{0}\relax }\@writefile{toc}{\contentsline {subsubsection}{Isochoric Neo-Hookean Model}{33}{section*.31}}
\newlabel{eq:JTNH}{{3.184}{34}{Isochoric Neo-Hookean Model}{equation.3.5.184}{}}
\@writefile{toc}{\defcounter {refsection}{0}\relax }\@writefile{toc}{\contentsline {subsubsection}{Isochoric Ogden Model}{34}{section*.32}}
\newlabel{eq:JTOgden}{{3.188}{35}{Isochoric Ogden Model}{equation.3.5.188}{}}
\@writefile{toc}{\defcounter {refsection}{0}\relax }\@writefile{toc}{\contentsline {subsubsection}{Holzapfel-Gasser-Ogden Model}{35}{section*.33}}
\newlabel{eq:JTAniso}{{3.195}{36}{Holzapfel-Gasser-Ogden Model}{equation.3.5.195}{}}
\@writefile{toc}{\defcounter {refsection}{0}\relax }\@writefile{toc}{\contentsline {subsubsection}{Volumetric stress}{36}{section*.34}}
\newlabel{eq:JTVol}{{3.200}{36}{Volumetric stress}{equation.3.5.200}{}}
\@writefile{toc}{\defcounter {refsection}{0}\relax }\@writefile{toc}{\contentsline {subsubsection}{Complete Original and Modified HGO Models}{36}{section*.35}}
\@writefile{toc}{\defcounter {refsection}{0}\relax }\@writefile{toc}{\contentsline {subsection}{\numberline {3.5.2}Approximation}{37}{subsection.3.5.2}}
\newlabel{eq:JauVar}{{3.202}{37}{Approximation}{equation.3.5.202}{}}
\@setckpt{./chapters/continuum_mechanics}{
\setcounter{page}{39}
\setcounter{equation}{211}
\setcounter{enumi}{0}
\setcounter{enumii}{0}
\setcounter{enumiii}{0}
\setcounter{enumiv}{0}
\setcounter{footnote}{10}
\setcounter{mpfootnote}{0}
\setcounter{part}{0}
\setcounter{chapter}{3}
\setcounter{section}{5}
\setcounter{subsection}{2}
\setcounter{subsubsection}{0}
\setcounter{paragraph}{0}
\setcounter{subparagraph}{0}
\setcounter{figure}{5}
\setcounter{table}{0}
\setcounter{tabx@nest}{0}
\setcounter{listtotal}{0}
\setcounter{listcount}{0}
\setcounter{liststart}{0}
\setcounter{liststop}{0}
\setcounter{citecount}{0}
\setcounter{citetotal}{0}
\setcounter{multicitecount}{0}
\setcounter{multicitetotal}{0}
\setcounter{instcount}{31}
\setcounter{maxnames}{3}
\setcounter{minnames}{1}
\setcounter{maxitems}{3}
\setcounter{minitems}{1}
\setcounter{citecounter}{0}
\setcounter{savedcitecounter}{0}
\setcounter{uniquelist}{0}
\setcounter{uniquename}{0}
\setcounter{refsection}{0}
\setcounter{refsegment}{0}
\setcounter{maxextrayear}{0}
\setcounter{maxextraalpha}{0}
\setcounter{abbrvpenalty}{50}
\setcounter{highnamepenalty}{50}
\setcounter{lownamepenalty}{25}
\setcounter{maxparens}{3}
\setcounter{parenlevel}{0}
\setcounter{mincomprange}{10}
\setcounter{maxcomprange}{100000}
\setcounter{mincompwidth}{1}
\setcounter{labelname}{0}
\setcounter{savedlabelname}{0}
\setcounter{author}{0}
\setcounter{savedauthor}{0}
\setcounter{shortauthor}{0}
\setcounter{savedshortauthor}{0}
\setcounter{editor}{0}
\setcounter{savededitor}{0}
\setcounter{editora}{0}
\setcounter{savededitora}{0}
\setcounter{editorb}{0}
\setcounter{savededitorb}{0}
\setcounter{editorc}{0}
\setcounter{savededitorc}{0}
\setcounter{shorteditor}{0}
\setcounter{savedshorteditor}{0}
\setcounter{bookauthor}{0}
\setcounter{savedbookauthor}{0}
\setcounter{translator}{0}
\setcounter{savedtranslator}{0}
\setcounter{annotator}{0}
\setcounter{savedannotator}{0}
\setcounter{commentator}{0}
\setcounter{savedcommentator}{0}
\setcounter{introduction}{0}
\setcounter{savedintroduction}{0}
\setcounter{foreword}{0}
\setcounter{savedforeword}{0}
\setcounter{afterword}{0}
\setcounter{savedafterword}{0}
\setcounter{holder}{0}
\setcounter{savedholder}{0}
\setcounter{namea}{0}
\setcounter{savednamea}{0}
\setcounter{nameb}{0}
\setcounter{savednameb}{0}
\setcounter{namec}{0}
\setcounter{savednamec}{0}
\setcounter{institution}{0}
\setcounter{savedinstitution}{0}
\setcounter{language}{0}
\setcounter{savedlanguage}{0}
\setcounter{location}{0}
\setcounter{savedlocation}{0}
\setcounter{organization}{0}
\setcounter{savedorganization}{0}
\setcounter{origlocation}{0}
\setcounter{savedoriglocation}{0}
\setcounter{origpublisher}{0}
\setcounter{savedorigpublisher}{0}
\setcounter{pageref}{0}
\setcounter{savedpageref}{0}
\setcounter{publisher}{0}
\setcounter{savedpublisher}{0}
\setcounter{lista}{0}
\setcounter{savedlista}{0}
\setcounter{listb}{0}
\setcounter{savedlistb}{0}
\setcounter{listc}{0}
\setcounter{savedlistc}{0}
\setcounter{listd}{0}
\setcounter{savedlistd}{0}
\setcounter{liste}{0}
\setcounter{savedliste}{0}
\setcounter{listf}{0}
\setcounter{savedlistf}{0}
\setcounter{textcitecount}{0}
\setcounter{textcitetotal}{0}
\setcounter{textcitemaxnames}{0}
\setcounter{biburlnumpenalty}{0}
\setcounter{biburlucpenalty}{0}
\setcounter{biburllcpenalty}{0}
\setcounter{smartand}{1}
\setcounter{bbx:relatedcount}{0}
\setcounter{bbx:relatedtotal}{0}
\setcounter{ContinuedFloat}{0}
\setcounter{subfigure}{0}
\setcounter{subtable}{0}
\setcounter{Item}{0}
\setcounter{Hfootnote}{10}
\setcounter{bookmark@seq@number}{34}
\setcounter{parentequation}{0}
\setcounter{@pps}{0}
\setcounter{@ppsavesec}{0}
\setcounter{@ppsaveapp}{0}
\setcounter{float@type}{4}
\setcounter{section@level}{2}
}
