\relax 
\providecommand\hyper@newdestlabel[2]{}
\@writefile{toc}{\defcounter {refsection}{0}\relax }\@writefile{toc}{\contentsline {chapter}{\numberline {4}Material Modelling Approach and Mechanical Constants}{39}{chapter.4}}
\@writefile{lof}{\defcounter {refsection}{0}\relax }\@writefile{lof}{\addvspace {10\p@ }}
\@writefile{lot}{\defcounter {refsection}{0}\relax }\@writefile{lot}{\addvspace {10\p@ }}
\@writefile{toc}{\defcounter {refsection}{0}\relax }\@writefile{toc}{\contentsline {section}{\numberline {4.1}Soft Collagenous Tissue}{40}{section.4.1}}
\@writefile{toc}{\defcounter {refsection}{0}\relax }\@writefile{toc}{\contentsline {subsection}{\numberline {4.1.1}Approaches to Modelling Soft Collagenous Tissue in the Literature}{40}{subsection.4.1.1}}
\@writefile{toc}{\defcounter {refsection}{0}\relax }\@writefile{toc}{\contentsline {subsection}{\numberline {4.1.2}Chosen Modelling Approach and Material Constants}{40}{subsection.4.1.2}}
\@writefile{toc}{\defcounter {refsection}{0}\relax }\@writefile{toc}{\contentsline {subsubsection}{Fitting a Material Model to Data}{40}{section*.36}}
\newlabel{eq:min_S}{{4.2}{41}{Fitting a Material Model to Data}{equation.4.1.2}{}}
\@writefile{toc}{\defcounter {refsection}{0}\relax }\@writefile{toc}{\contentsline {subsubsection}{Available Data}{41}{section*.37}}
\newlabel{subfig:aniso rabit}{{4.1e}{42}{\cite {aniso_rabit}\relax }{figure.caption.38}{}}
\newlabel{sub@subfig:aniso rabit}{{e}{42}{\cite {aniso_rabit}\relax }{figure.caption.38}{}}
\@writefile{lof}{\defcounter {refsection}{0}\relax }\@writefile{lof}{\contentsline {figure}{\numberline {4.1}{\ignorespaces Stress-strain (or equivalent) curves of a) soft human tissue, b) rat tendon, c) atomistic model of a collagen molecule, d) collagen fibres suspended in an artificial matrix and e) rabbit skin\relax }}{42}{figure.caption.38}}
\newlabel{fig:different_collagens_stress_strain}{{4.1}{42}{Stress-strain (or equivalent) curves of a) soft human tissue, b) rat tendon, c) atomistic model of a collagen molecule, d) collagen fibres suspended in an artificial matrix and e) rabbit skin\relax }{figure.caption.38}{}}
\@writefile{toc}{\defcounter {refsection}{0}\relax }\@writefile{toc}{\contentsline {subsubsection}{Scaling the Data}{43}{section*.39}}
\@writefile{lof}{\defcounter {refsection}{0}\relax }\@writefile{lof}{\contentsline {figure}{\numberline {4.2}{\ignorespaces Soft and stiff scaled $45^\circ $ data\relax }}{44}{figure.caption.40}}
\newlabel{fig:scaled_45}{{4.2}{44}{Soft and stiff scaled $45^\circ $ data\relax }{figure.caption.40}{}}
\newlabel{sec:ten_test}{{4.1.2}{44}{Analytical Solution for Uniaxial Loading}{section*.42}{}}
\@writefile{toc}{\defcounter {refsection}{0}\relax }\@writefile{toc}{\contentsline {subsubsection}{Analytical Solution for Uniaxial Loading }{44}{section*.42}}
\@writefile{lof}{\defcounter {refsection}{0}\relax }\@writefile{lof}{\contentsline {figure}{\numberline {4.3}{\ignorespaces Soft and stiff scaled $0^\circ $ and $90^\circ $ curves\relax }}{45}{figure.caption.41}}
\newlabel{fig:scaled_data}{{4.3}{45}{Soft and stiff scaled $0^\circ $ and $90^\circ $ curves\relax }{figure.caption.41}{}}
\@writefile{lof}{\defcounter {refsection}{0}\relax }\@writefile{lof}{\contentsline {figure}{\numberline {4.4}{\ignorespaces Schematic diagram of a uniaxial tensile test\relax }}{45}{figure.caption.43}}
\newlabel{fig:3d_tensil_test}{{4.4}{45}{Schematic diagram of a uniaxial tensile test\relax }{figure.caption.43}{}}
\newlabel{eq:iso_diff}{{4.11}{46}{Analytical Solution for Uniaxial Loading}{equation.4.1.11}{}}
\@writefile{toc}{\defcounter {refsection}{0}\relax }\@writefile{toc}{\contentsline {subsubsection}{Analytical Solutions for the Original HGO Model}{47}{section*.44}}
\newlabel{eq:HGOOriginal}{{4.21}{47}{Analytical Solutions for the Original HGO Model}{equation.4.1.21}{}}
\@writefile{toc}{\defcounter {refsection}{0}\relax }\@writefile{toc}{\contentsline {subsubsection}{Analytical Solutions for Modified HGO Model}{48}{section*.45}}
\newlabel{eq:par_analytical}{{4.46}{49}{Analytical Solutions for Modified HGO Model}{equation.4.1.46}{}}
\newlabel{eq:perp_analytical}{{4.53}{50}{Analytical Solutions for Modified HGO Model}{equation.4.1.53}{}}
\@writefile{toc}{\defcounter {refsection}{0}\relax }\@writefile{toc}{\contentsline {subsubsection}{Results of fitting}{50}{section*.46}}
\@writefile{lot}{\defcounter {refsection}{0}\relax }\@writefile{lot}{\contentsline {table}{\numberline {4.1}{\ignorespaces Optimal original HGO model material constants and error\relax }}{50}{table.caption.47}}
\newlabel{tab:o_mat_properties}{{4.1}{50}{Optimal original HGO model material constants and error\relax }{table.caption.47}{}}
\@writefile{lof}{\defcounter {refsection}{0}\relax }\@writefile{lof}{\contentsline {figure}{\numberline {4.5}{\ignorespaces Comparison of the fitted original HGO model against the soft data\relax }}{51}{figure.caption.48}}
\newlabel{fig:o_hgo_comp}{{4.5}{51}{Comparison of the fitted original HGO model against the soft data\relax }{figure.caption.48}{}}
\@writefile{lot}{\defcounter {refsection}{0}\relax }\@writefile{lot}{\contentsline {table}{\numberline {4.2}{\ignorespaces Optimal modified HGO model material constants and error\relax }}{51}{table.caption.49}}
\newlabel{tab:m_mat_properties}{{4.2}{51}{Optimal modified HGO model material constants and error\relax }{table.caption.49}{}}
\@writefile{lof}{\defcounter {refsection}{0}\relax }\@writefile{lof}{\contentsline {figure}{\numberline {4.6}{\ignorespaces Comparisons of the fitted modified HGO model against a) the soft data and b) the stiff data\relax }}{51}{figure.caption.50}}
\newlabel{fig:m_HGO_fit}{{4.6}{51}{Comparisons of the fitted modified HGO model against a) the soft data and b) the stiff data\relax }{figure.caption.50}{}}
\@writefile{toc}{\defcounter {refsection}{0}\relax }\@writefile{toc}{\contentsline {section}{\numberline {4.2}Bone}{52}{section.4.2}}
\@writefile{toc}{\defcounter {refsection}{0}\relax }\@writefile{toc}{\contentsline {subsection}{\numberline {4.2.1}Approaches to Bone Modelling in the Literature}{52}{subsection.4.2.1}}
\@writefile{toc}{\defcounter {refsection}{0}\relax }\@writefile{toc}{\contentsline {subsection}{\numberline {4.2.2}Chosen Modelling Approach and Material Constants}{53}{subsection.4.2.2}}
\@writefile{lot}{\defcounter {refsection}{0}\relax }\@writefile{lot}{\contentsline {table}{\numberline {4.3}{\ignorespaces Young's moduli at various positions in a turtle carapace rib when hydrated \cite {all_props}\relax }}{53}{table.caption.51}}
\newlabel{tab:bone_mat_properties_youngs}{{4.3}{53}{Young's moduli at various positions in a turtle carapace rib when hydrated \cite {all_props}\relax }{table.caption.51}{}}
\@writefile{lof}{\defcounter {refsection}{0}\relax }\@writefile{lof}{\contentsline {figure}{\numberline {4.7}{\ignorespaces Compression test results from Rhee \textit  {et al.} \cite {rhee} showing a) the stress-strain curves for compression test specimens containing only a cortical (exterior) layer and specimens containing both the cancellous and cortical layers and b) the stiffness and hardness of the various layers in the bone.\relax }}{54}{figure.caption.52}}
\newlabel{fig:bone_comp_test}{{4.7}{54}{Compression test results from Rhee \textit {et al.} \cite {rhee} showing a) the stress-strain curves for compression test specimens containing only a cortical (exterior) layer and specimens containing both the cancellous and cortical layers and b) the stiffness and hardness of the various layers in the bone.\relax }{figure.caption.52}{}}
\@writefile{lot}{\defcounter {refsection}{0}\relax }\@writefile{lot}{\contentsline {table}{\numberline {4.4}{\ignorespaces Chosen bone material constants\relax }}{54}{table.caption.53}}
\newlabel{tab:chosen_bone}{{4.4}{54}{Chosen bone material constants\relax }{table.caption.53}{}}
\@writefile{toc}{\defcounter {refsection}{0}\relax }\@writefile{toc}{\contentsline {section}{\numberline {4.3}Hard Keratinous Tissue}{55}{section.4.3}}
\@writefile{toc}{\defcounter {refsection}{0}\relax }\@writefile{toc}{\contentsline {subsection}{\numberline {4.3.1}Approaches to Modelling Hard Keratinous Tissue in the Literature}{55}{subsection.4.3.1}}
\@writefile{toc}{\defcounter {refsection}{0}\relax }\@writefile{toc}{\contentsline {subsection}{\numberline {4.3.2}Chosen Modelling Approach and Material Constants}{55}{subsection.4.3.2}}
\@writefile{lot}{\defcounter {refsection}{0}\relax }\@writefile{lot}{\contentsline {table}{\numberline {4.5}{\ignorespaces Summary of material constants for turtle shell keratin found in the literature\relax }}{55}{table.caption.54}}
\newlabel{tab:ker_properties}{{4.5}{55}{Summary of material constants for turtle shell keratin found in the literature\relax }{table.caption.54}{}}
\@writefile{lof}{\defcounter {refsection}{0}\relax }\@writefile{lof}{\contentsline {figure}{\numberline {4.8}{\ignorespaces Results of uniaxial tensile tests on the keratin layer of a turtle shell carried out by Chen \textit  {et al.} \cite {ker_pic}. Curves 1 and 2 were dry test samples whereas curves 3 and 4 were hydrated test samples. All tests were conducted in-plane. However, curves 1 and 4 were loaded in the medial direction, whereas curves 2 and 3 were loaded in the lateral direction.\relax }}{56}{figure.caption.55}}
\newlabel{fig:ker_test}{{4.8}{56}{Results of uniaxial tensile tests on the keratin layer of a turtle shell carried out by Chen \textit {et al.} \cite {ker_pic}. Curves 1 and 2 were dry test samples whereas curves 3 and 4 were hydrated test samples. All tests were conducted in-plane. However, curves 1 and 4 were loaded in the medial direction, whereas curves 2 and 3 were loaded in the lateral direction.\relax }{figure.caption.55}{}}
\@writefile{lot}{\defcounter {refsection}{0}\relax }\@writefile{lot}{\contentsline {table}{\numberline {4.6}{\ignorespaces Chosen keratin material constants\relax }}{56}{table.caption.56}}
\newlabel{tab:chosen_kerating}{{4.6}{56}{Chosen keratin material constants\relax }{table.caption.56}{}}
\@setckpt{./chapters/mech_properties}{
\setcounter{page}{57}
\setcounter{equation}{54}
\setcounter{enumi}{0}
\setcounter{enumii}{0}
\setcounter{enumiii}{0}
\setcounter{enumiv}{0}
\setcounter{footnote}{1}
\setcounter{mpfootnote}{0}
\setcounter{part}{0}
\setcounter{chapter}{4}
\setcounter{section}{3}
\setcounter{subsection}{2}
\setcounter{subsubsection}{0}
\setcounter{paragraph}{0}
\setcounter{subparagraph}{0}
\setcounter{figure}{8}
\setcounter{table}{6}
\setcounter{tabx@nest}{0}
\setcounter{listtotal}{0}
\setcounter{listcount}{0}
\setcounter{liststart}{0}
\setcounter{liststop}{0}
\setcounter{citecount}{0}
\setcounter{citetotal}{0}
\setcounter{multicitecount}{0}
\setcounter{multicitetotal}{0}
\setcounter{instcount}{91}
\setcounter{maxnames}{3}
\setcounter{minnames}{1}
\setcounter{maxitems}{3}
\setcounter{minitems}{1}
\setcounter{citecounter}{0}
\setcounter{savedcitecounter}{0}
\setcounter{uniquelist}{0}
\setcounter{uniquename}{0}
\setcounter{refsection}{0}
\setcounter{refsegment}{0}
\setcounter{maxextrayear}{0}
\setcounter{maxextraalpha}{0}
\setcounter{abbrvpenalty}{50}
\setcounter{highnamepenalty}{50}
\setcounter{lownamepenalty}{25}
\setcounter{maxparens}{3}
\setcounter{parenlevel}{0}
\setcounter{mincomprange}{10}
\setcounter{maxcomprange}{100000}
\setcounter{mincompwidth}{1}
\setcounter{labelname}{0}
\setcounter{savedlabelname}{0}
\setcounter{author}{0}
\setcounter{savedauthor}{0}
\setcounter{shortauthor}{0}
\setcounter{savedshortauthor}{0}
\setcounter{editor}{0}
\setcounter{savededitor}{0}
\setcounter{editora}{0}
\setcounter{savededitora}{0}
\setcounter{editorb}{0}
\setcounter{savededitorb}{0}
\setcounter{editorc}{0}
\setcounter{savededitorc}{0}
\setcounter{shorteditor}{0}
\setcounter{savedshorteditor}{0}
\setcounter{bookauthor}{0}
\setcounter{savedbookauthor}{0}
\setcounter{translator}{0}
\setcounter{savedtranslator}{0}
\setcounter{annotator}{0}
\setcounter{savedannotator}{0}
\setcounter{commentator}{0}
\setcounter{savedcommentator}{0}
\setcounter{introduction}{0}
\setcounter{savedintroduction}{0}
\setcounter{foreword}{0}
\setcounter{savedforeword}{0}
\setcounter{afterword}{0}
\setcounter{savedafterword}{0}
\setcounter{holder}{0}
\setcounter{savedholder}{0}
\setcounter{namea}{0}
\setcounter{savednamea}{0}
\setcounter{nameb}{0}
\setcounter{savednameb}{0}
\setcounter{namec}{0}
\setcounter{savednamec}{0}
\setcounter{institution}{0}
\setcounter{savedinstitution}{0}
\setcounter{language}{0}
\setcounter{savedlanguage}{0}
\setcounter{location}{0}
\setcounter{savedlocation}{0}
\setcounter{organization}{0}
\setcounter{savedorganization}{0}
\setcounter{origlocation}{0}
\setcounter{savedoriglocation}{0}
\setcounter{origpublisher}{0}
\setcounter{savedorigpublisher}{0}
\setcounter{pageref}{0}
\setcounter{savedpageref}{0}
\setcounter{publisher}{0}
\setcounter{savedpublisher}{0}
\setcounter{lista}{0}
\setcounter{savedlista}{0}
\setcounter{listb}{0}
\setcounter{savedlistb}{0}
\setcounter{listc}{0}
\setcounter{savedlistc}{0}
\setcounter{listd}{0}
\setcounter{savedlistd}{0}
\setcounter{liste}{0}
\setcounter{savedliste}{0}
\setcounter{listf}{0}
\setcounter{savedlistf}{0}
\setcounter{textcitecount}{0}
\setcounter{textcitetotal}{0}
\setcounter{textcitemaxnames}{0}
\setcounter{biburlnumpenalty}{0}
\setcounter{biburlucpenalty}{0}
\setcounter{biburllcpenalty}{0}
\setcounter{smartand}{1}
\setcounter{bbx:relatedcount}{0}
\setcounter{bbx:relatedtotal}{0}
\setcounter{ContinuedFloat}{0}
\setcounter{subfigure}{0}
\setcounter{subtable}{0}
\setcounter{Item}{0}
\setcounter{Hfootnote}{11}
\setcounter{bookmark@seq@number}{44}
\setcounter{parentequation}{0}
\setcounter{@pps}{0}
\setcounter{@ppsavesec}{0}
\setcounter{@ppsaveapp}{0}
\setcounter{float@type}{4}
\setcounter{section@level}{2}
}
