\relax 
\providecommand\hyper@newdestlabel[2]{}
\@writefile{toc}{\defcounter {refsection}{0}\relax }\@writefile{toc}{\contentsline {chapter}{\numberline {7}Model Validation}{59}{chapter.7}}
\@writefile{lof}{\defcounter {refsection}{0}\relax }\@writefile{lof}{\addvspace {10\p@ }}
\@writefile{lot}{\defcounter {refsection}{0}\relax }\@writefile{lot}{\addvspace {10\p@ }}
\@writefile{toc}{\defcounter {refsection}{0}\relax }\@writefile{toc}{\contentsline {section}{\numberline {7.1}Validation of Soft Tissue User Material Subroutine}{59}{section.7.1}}
\@writefile{toc}{\defcounter {refsection}{0}\relax }\@writefile{toc}{\contentsline {subsection}{\numberline {7.1.1}Uniaxial Loading}{59}{subsection.7.1.1}}
\@writefile{lof}{\defcounter {refsection}{0}\relax }\@writefile{lof}{\contentsline {figure}{\numberline {7.1}{\ignorespaces Schematic diagram of uniaxial loading highlighting the symmetries of the problem.\relax }}{59}{figure.caption.61}}
\newlabel{fig:uni_symm}{{7.1}{59}{Schematic diagram of uniaxial loading highlighting the symmetries of the problem.\relax }{figure.caption.61}{}}
\@writefile{lof}{\defcounter {refsection}{0}\relax }\@writefile{lof}{\contentsline {figure}{\numberline {7.2}{\ignorespaces Schematic diagrams of a FEM model of a tensile test done on a transversely isotropic material with a) the fibres parallel to the loading direction and b) the fibres perpendicular to the loading direction\relax }}{60}{figure.caption.62}}
\newlabel{fig:ut_symm}{{7.2}{60}{Schematic diagrams of a FEM model of a tensile test done on a transversely isotropic material with a) the fibres parallel to the loading direction and b) the fibres perpendicular to the loading direction\relax }{figure.caption.62}{}}
\newlabel{eq:an_par}{{7.1}{60}{Uniaxial Loading}{equation.7.1.1}{}}
\newlabel{eq:an_per}{{7.2}{60}{Uniaxial Loading}{equation.7.1.2}{}}
\newlabel{eq:lam2_res}{{7.3}{60}{Uniaxial Loading}{equation.7.1.3}{}}
\@writefile{lof}{\defcounter {refsection}{0}\relax }\@writefile{lof}{\contentsline {figure}{\numberline {7.3}{\ignorespaces Comparison of Results from Abaqus simulations against analytical solutions of a tensile test when fibres are parallel to the loading direction ($||$) and perpendicular to the loading direction ($\perp $). The graph also contains the norm of a vector containing all the Cauchy Stresses produced by Abaqus except for $\sigma _{11}$, denoted as $|\bm  {\sigma }_{other}|$.\relax }}{61}{figure.caption.63}}
\newlabel{fig:comp_aba_an_ten}{{7.3}{61}{Comparison of Results from Abaqus simulations against analytical solutions of a tensile test when fibres are parallel to the loading direction ($||$) and perpendicular to the loading direction ($\perp $). The graph also contains the norm of a vector containing all the Cauchy Stresses produced by Abaqus except for $\sigma _{11}$, denoted as $|\bm {\sigma }_{other}|$.\relax }{figure.caption.63}{}}
\@writefile{lof}{\defcounter {refsection}{0}\relax }\@writefile{lof}{\contentsline {figure}{\numberline {7.4}{\ignorespaces Comparison of results for $\lambda _2$ determined by \texttt  {Abaqus} with the analytical solution.\relax }}{62}{figure.caption.64}}
\newlabel{fig:lam2_comp}{{7.4}{62}{Comparison of results for $\lambda _2$ determined by \texttt {Abaqus} with the analytical solution.\relax }{figure.caption.64}{}}
\@writefile{toc}{\defcounter {refsection}{0}\relax }\@writefile{toc}{\contentsline {subsection}{\numberline {7.1.2}Plane Strain Simple Shear}{62}{subsection.7.1.2}}
\@writefile{lof}{\defcounter {refsection}{0}\relax }\@writefile{lof}{\contentsline {figure}{\numberline {7.5}{\ignorespaces Comparison of results of finite shear loading with a fibre direction of $\bm  {a}_0 = \left [1,0,0 \right ]^T$ simulated in \texttt  {Abaqus} compared against the analytical solution.\relax }}{64}{figure.caption.65}}
\newlabel{fig:par_shear}{{7.5}{64}{Comparison of results of finite shear loading with a fibre direction of $\bm {a}_0 = \left [1,0,0 \right ]^T$ simulated in \texttt {Abaqus} compared against the analytical solution.\relax }{figure.caption.65}{}}
\@writefile{lof}{\defcounter {refsection}{0}\relax }\@writefile{lof}{\contentsline {figure}{\numberline {7.6}{\ignorespaces Comparison of results of finite shear loading with a fibre direction of $\bm  {a}_0 = \left [0,1,0 \right ]^T$ simulated in \texttt  {Abaqus} compared against the analytical solution.\relax }}{64}{figure.caption.66}}
\newlabel{fig:per_shear}{{7.6}{64}{Comparison of results of finite shear loading with a fibre direction of $\bm {a}_0 = \left [0,1,0 \right ]^T$ simulated in \texttt {Abaqus} compared against the analytical solution.\relax }{figure.caption.66}{}}
\@writefile{toc}{\defcounter {refsection}{0}\relax }\@writefile{toc}{\contentsline {section}{\numberline {7.2}Validation of Overall Model}{65}{section.7.2}}
\@writefile{toc}{\defcounter {refsection}{0}\relax }\@writefile{toc}{\contentsline {subsection}{\numberline {7.2.1}Three Point Bend Test}{65}{subsection.7.2.1}}
\@writefile{toc}{\defcounter {refsection}{0}\relax }\@writefile{toc}{\contentsline {subsection}{\numberline {7.2.2}Stress Distribution in Protrusions}{65}{subsection.7.2.2}}
\@setckpt{./chapters/validation}{
\setcounter{page}{66}
\setcounter{equation}{10}
\setcounter{enumi}{0}
\setcounter{enumii}{0}
\setcounter{enumiii}{0}
\setcounter{enumiv}{0}
\setcounter{footnote}{0}
\setcounter{mpfootnote}{0}
\setcounter{part}{0}
\setcounter{chapter}{7}
\setcounter{section}{2}
\setcounter{subsection}{2}
\setcounter{subsubsection}{0}
\setcounter{paragraph}{0}
\setcounter{subparagraph}{0}
\setcounter{figure}{6}
\setcounter{table}{0}
\setcounter{tabx@nest}{0}
\setcounter{listtotal}{0}
\setcounter{listcount}{0}
\setcounter{liststart}{0}
\setcounter{liststop}{0}
\setcounter{citecount}{0}
\setcounter{citetotal}{0}
\setcounter{multicitecount}{0}
\setcounter{multicitetotal}{0}
\setcounter{instcount}{91}
\setcounter{maxnames}{3}
\setcounter{minnames}{1}
\setcounter{maxitems}{3}
\setcounter{minitems}{1}
\setcounter{citecounter}{0}
\setcounter{savedcitecounter}{0}
\setcounter{uniquelist}{0}
\setcounter{uniquename}{0}
\setcounter{refsection}{0}
\setcounter{refsegment}{0}
\setcounter{maxextrayear}{0}
\setcounter{maxextraalpha}{0}
\setcounter{abbrvpenalty}{50}
\setcounter{highnamepenalty}{50}
\setcounter{lownamepenalty}{25}
\setcounter{maxparens}{3}
\setcounter{parenlevel}{0}
\setcounter{mincomprange}{10}
\setcounter{maxcomprange}{100000}
\setcounter{mincompwidth}{1}
\setcounter{labelname}{0}
\setcounter{savedlabelname}{0}
\setcounter{author}{0}
\setcounter{savedauthor}{0}
\setcounter{shortauthor}{0}
\setcounter{savedshortauthor}{0}
\setcounter{editor}{0}
\setcounter{savededitor}{0}
\setcounter{editora}{0}
\setcounter{savededitora}{0}
\setcounter{editorb}{0}
\setcounter{savededitorb}{0}
\setcounter{editorc}{0}
\setcounter{savededitorc}{0}
\setcounter{shorteditor}{0}
\setcounter{savedshorteditor}{0}
\setcounter{bookauthor}{0}
\setcounter{savedbookauthor}{0}
\setcounter{translator}{0}
\setcounter{savedtranslator}{0}
\setcounter{annotator}{0}
\setcounter{savedannotator}{0}
\setcounter{commentator}{0}
\setcounter{savedcommentator}{0}
\setcounter{introduction}{0}
\setcounter{savedintroduction}{0}
\setcounter{foreword}{0}
\setcounter{savedforeword}{0}
\setcounter{afterword}{0}
\setcounter{savedafterword}{0}
\setcounter{holder}{0}
\setcounter{savedholder}{0}
\setcounter{namea}{0}
\setcounter{savednamea}{0}
\setcounter{nameb}{0}
\setcounter{savednameb}{0}
\setcounter{namec}{0}
\setcounter{savednamec}{0}
\setcounter{institution}{0}
\setcounter{savedinstitution}{0}
\setcounter{language}{0}
\setcounter{savedlanguage}{0}
\setcounter{location}{0}
\setcounter{savedlocation}{0}
\setcounter{organization}{0}
\setcounter{savedorganization}{0}
\setcounter{origlocation}{0}
\setcounter{savedoriglocation}{0}
\setcounter{origpublisher}{0}
\setcounter{savedorigpublisher}{0}
\setcounter{pageref}{0}
\setcounter{savedpageref}{0}
\setcounter{publisher}{0}
\setcounter{savedpublisher}{0}
\setcounter{lista}{0}
\setcounter{savedlista}{0}
\setcounter{listb}{0}
\setcounter{savedlistb}{0}
\setcounter{listc}{0}
\setcounter{savedlistc}{0}
\setcounter{listd}{0}
\setcounter{savedlistd}{0}
\setcounter{liste}{0}
\setcounter{savedliste}{0}
\setcounter{listf}{0}
\setcounter{savedlistf}{0}
\setcounter{textcitecount}{0}
\setcounter{textcitetotal}{0}
\setcounter{textcitemaxnames}{0}
\setcounter{biburlnumpenalty}{0}
\setcounter{biburlucpenalty}{0}
\setcounter{biburllcpenalty}{0}
\setcounter{smartand}{1}
\setcounter{bbx:relatedcount}{0}
\setcounter{bbx:relatedtotal}{0}
\setcounter{ContinuedFloat}{0}
\setcounter{subfigure}{0}
\setcounter{subtable}{0}
\setcounter{Item}{0}
\setcounter{Hfootnote}{11}
\setcounter{bookmark@seq@number}{60}
\setcounter{parentequation}{0}
\setcounter{@pps}{0}
\setcounter{@ppsavesec}{0}
\setcounter{@ppsaveapp}{0}
\setcounter{float@type}{4}
\setcounter{section@level}{2}
}
